{
  "conversations": [
    {
      "id": 443006,
      "start_time": "2025-03-13T12:54:50.157Z",
      "end_time": null,
      "device_type": "Bee",
      "summary": null,
      "short_summary": null,
      "state": "CAPTURING",
      "created_at": "2025-03-13T12:54:50.157Z",
      "updated_at": "2025-03-13T13:08:50.323Z",
      "primary_location": {
        "address": "6027 Willow Glen Dr, Wilmington, NC, New Hanover County, 28412, United States",
        "latitude": 34.12136546583464,
        "longitude": -77.91256524649523,
        "created_at": "2025-03-13T13:08:50.243Z"
      }
    },
    {
      "id": 429648,
      "start_time": "2025-03-13T01:52:11.507Z",
      "end_time": "2025-03-13T02:09:31.092Z",
      "device_type": "Bee",
      "summary": "Summary: Bruce was looking for something in the fridge and found an empty glass.  It seems like he was trying to have a conversation with someone about it, potentially accusing them of finishing the drink. He mentioned \"Bennington\" which could be a clue to who he was talking to. \n\nAtmosphere: It's a bit unclear and seems like a snippet of a larger conversation, making it hard to get a read on the atmosphere. \n\nKey Take aways:\n* Bruce was looking for something to drink. \n* The empty glass in the fridge suggests someone might have finished the last of it. \n* Bruce seems to be trying to figure out who finished the drink, mentioning \"Bennington\". \n",
      "short_summary": "Bruce clarified that he was referring to Bennington, not himself, after being questioned about an empty glass in the refrigerator.\n",
      "state": "COMPLETED",
      "created_at": "2025-03-13T01:52:11.507Z",
      "updated_at": "2025-03-13T02:09:31.092Z",
      "primary_location": {
        "address": "6027 Willow Glen Dr, Wilmington, NC, New Hanover County, 28412, United States",
        "latitude": 34.121387532261394,
        "longitude": -77.91260205344922,
        "created_at": "2025-03-13T01:59:30.813Z"
      }
    },
    {
      "id": 429056,
      "start_time": "2025-03-13T01:04:45.479Z",
      "end_time": "2025-03-13T01:52:06.844Z",
      "device_type": "Bee",
      "summary": "## Summary:\nToday, you reminisced about taking your sons to Happy Hollow Park in San Jose. You vividly recalled the rides, the petting zoo, and the overall enjoyment your sons had during your visits. The conversation sparked other cherished memories, including trips to California's Great America, Fairy Land in Oakland, and Vasona Lake Park. You also discussed your recent job change at Walgreens, transitioning from a Shift Lead to a Customer Service Associate to reduce stress and anxiety. \n\n## Atmosphere:\nThe conversation felt nostalgic and reflective as you delved into happy memories with your sons. There was a sense of contentment and acceptance regarding your job change, highlighting your focus on well-being. \n\n## Key Take Aways:\n* You fondly remember taking your sons to Happy Hollow Park and other amusement parks.\n* You stepped down from Shift Lead to Customer Service Associate at Walgreens to prioritize your mental health.\n* You are content with your decision and feel less anxious despite the pay cut. \n",
      "short_summary": "Bruce stepped down from his stressful shift lead position at Walgreens for a less demanding, less anxiety-inducing role as a customer service associate, while also reminiscing about happy family memories at various parks and California's Great America.\n",
      "state": "COMPLETED",
      "created_at": "2025-03-13T01:04:45.479Z",
      "updated_at": "2025-03-13T02:55:07.234Z",
      "primary_location": {
        "address": "Willow Glen Dr, Wilmington, NC, New Hanover County, 28412, United States",
        "latitude": 34.12401853539898,
        "longitude": -77.91238655909163,
        "created_at": "2025-03-13T01:27:20.019Z"
      }
    },
    {
      "id": 425310,
      "start_time": "2025-03-12T20:06:36.053Z",
      "end_time": "2025-03-12T20:22:10.351Z",
      "device_type": "Bee",
      "summary": "Summary: You are reminiscing about fun times spent with Russell playing games and doing science experiments. You fondly recall playing various games, including Exploding Kittens, a burrito-throwing game, and different versions of Monopoly, some featuring dinosaurs. You also reminisce about engaging in science experiments, particularly Tasty Science, which you've done countless times, and building a water rocket. You briefly mention a trip to a place where people fly, potentially linked to Boy Scouts. \n\nAtmosphere: The atmosphere is warm and nostalgic, filled with happy memories of shared experiences. \n\nKey Take Aways:\n- You and Russell share a love for games, especially Exploding Kittens and Monopoly.\n- You have fond memories of playing a burrito-throwing game. \n- You both enjoy science experiments, with Tasty Science being a particular favorite.\n- Building and launching a water rocket was a memorable experience. \n- A trip to a place involving flying, possibly related to Boy Scouts, stands out in your memory. \n",
      "short_summary": "Bruce and Russell spent time together playing various games, including Exploding Kittens, a burrito-themed game, a dinosaur game, Tasty Science, and Monopoly, and also engaged in science experiments and model airplane activities.\n",
      "state": "COMPLETED",
      "created_at": "2025-03-12T20:06:36.053Z",
      "updated_at": "2025-03-12T20:22:10.351Z",
      "primary_location": {
        "address": "2401 N College Rd, Wilmington, NC, New Hanover County, 28405, United States",
        "latitude": 34.28966439963345,
        "longitude": -77.87202983003348,
        "created_at": "2025-03-12T20:07:29.599Z"
      }
    },
    {
      "id": 422443,
      "start_time": "2025-03-12T16:49:51.173Z",
      "end_time": "2025-03-12T17:34:54.518Z",
      "device_type": "Bee",
      "summary": "## Summary: \nYou were reminiscing about fun times you had with your kids at various parks when they were younger.  You talked about Rancho San Antonio Park, Emma Prusch Farm Park, and the San Jose History Park.  You described the different features of each park, like the petting zoos, playgrounds, and historical exhibits. You seemed especially fond of the petting zoos and remembered how much your kids, especially Russell, enjoyed them.\n\n## Atmosphere:\nThe conversation was very nostalgic and full of happy memories. You were clearly enjoying the trip down memory lane and the chance to relive these special moments with your kids. \n\n## Key Take Aways:\n* You visited Rancho San Antonio Park, which had a petting zoo you had to hike to.\n* You frequented Emma Prusch Farm Park, known for its free-roaming chickens and small petting zoo.\n* San Jose History Park was a favorite, featuring train rides, historical exhibits, and special events.\n* Your son, Russell, was particularly interested in a presentation about the Vietnam War at the History Park. \n",
      "short_summary": "Bruce and a companion reminisced about various parks and zoos they visited with their sons, including Rancho San Antonio Park, Emma Prusch Farm Park, and San Jose History Park, highlighting specific features and memories from each location.\n",
      "state": "COMPLETED",
      "created_at": "2025-03-12T16:49:51.173Z",
      "updated_at": "2025-03-12T17:34:54.518Z",
      "primary_location": {
        "address": "2401 N College Rd, Wilmington, NC, New Hanover County, 28405, United States",
        "latitude": 34.28945278691083,
        "longitude": -77.87223535428954,
        "created_at": "2025-03-12T17:23:14.130Z"
      }
    },
    {
      "id": 421921,
      "start_time": "2025-03-12T16:12:03.982Z",
      "end_time": "2025-03-12T16:45:36.035Z",
      "device_type": "Bee",
      "summary": "## Summary \n\nYou had a funny and slightly confusing conversation with someone who seems to have been asking you to do some tasks for them, like booking a psychiatrist appointment and checking the weather.  You joked that you were a \"tragedy\" and they should book you an appointment with a psychiatrist.  They mentioned someone named Russell needing to work. \n\n## Atmosphere\n\nHumorous, light-hearted, slightly confusing\n\n## Key Take Aways\n* You need to book an appointment with a psychiatrist (this was a joke)\n* It's supposed to be in the 70s today \n* Someone (possibly named Russell) needs to go to work \n",
      "short_summary": "I expressed concern for someone's well-being and then scheduled a psychiatrist appointment for myself.\n",
      "state": "COMPLETED",
      "created_at": "2025-03-12T16:12:03.982Z",
      "updated_at": "2025-03-12T16:45:36.035Z",
      "primary_location": {
        "address": "5783\u20135797 Carolina Beach Rd, Wilmington, NC, New Hanover County, 28412, United States",
        "latitude": 34.128464466666664,
        "longitude": -77.89802540000001,
        "created_at": "2025-03-12T16:41:22.844Z"
      }
    },
    {
      "id": 420652,
      "start_time": "2025-03-12T14:45:45.661Z",
      "end_time": "2025-03-12T15:45:00.873Z",
      "device_type": "Bee",
      "summary": "## Summary\nBruce had a busy day. It started with a conversation about food and household chores, including a missing red microwave and instructions for using the sour cream cheese. Bruce's mom also called and asked to speak with him. Later, Bruce participated in a discussion about the economic impact of tariffs, arguing that they make it harder for people to purchase vehicles.\n\n## Atmosphere\nThe atmosphere of the interaction is informal and lively, shifting from mundane household topics to a more heated discussion about economics and politics.\n\n## Key Take Aways\n* **Call Mom:** Bruce's mom called and wants him to call her back.\n* **Sour Cream Cheese:** Someone (possibly Bruce) forgot to put the top back on the sour cream cheese. Use the one without the lid.\n* **Tariff Discussion:** Bruce participated in a debate about tariffs, arguing that they negatively impact consumers by making it harder to purchase vehicles. \n",
      "short_summary": "Bruce discussed family matters, work, and mysterious household occurrences, while also expressing concern about a potential customer losing valuable time due to an interruption.\n",
      "state": "COMPLETED",
      "created_at": "2025-03-12T14:45:45.661Z",
      "updated_at": "2025-03-12T15:45:00.873Z",
      "primary_location": {
        "address": "6027 Willow Glen Dr, Wilmington, NC, New Hanover County, 28412, United States",
        "latitude": 34.12136546583464,
        "longitude": -77.91256524649523,
        "created_at": "2025-03-12T15:14:18.667Z"
      }
    },
    {
      "id": 419514,
      "start_time": "2025-03-12T13:30:29.472Z",
      "end_time": "2025-03-12T14:29:28.023Z",
      "device_type": "Bee",
      "summary": "## Summary: \nYou and your son, Russell, were trying to get a doctor's note for his school due to anxiety he's experiencing. The appointment with his primary care provider, Emily Warden, was unsuccessful as she is out of the office.  After some back and forth, Russell was able to reschedule the appointment but not before the 18th. You also had a conversation with Russell about taking responsibility for his school attendance and how your frustration with the situation doesn't reflect on him.\n\n## Atmosphere: \nThe conversation was tense at times, with some frustration around getting the doctor's note and navigating the situation. You expressed your frustration directly while also trying to reassure Russell that your anger was not directed at him.\n\n## Key Take Aways:\n* Russell needs a doctor's note for school due to anxiety.\n* Emily Warden, his primary care provider, is unavailable.\n* Russell was able to reschedule the appointment for the 18th.\n* You plan to talk to Russell about taking more responsibility for his school attendance.\n* You reassured Russell that your frustration is with the situation, not him. \n",
      "short_summary": "Bruce helped Russell reschedule a doctor's appointment, address his anxiety and school absences, and discussed strategies for managing Russell's drug use.\n",
      "state": "COMPLETED",
      "created_at": "2025-03-12T13:30:29.472Z",
      "updated_at": "2025-03-12T14:29:28.023Z",
      "primary_location": {
        "address": "6023 Willow Glen Dr, Wilmington, NC, New Hanover County, 28412, United States",
        "latitude": 34.12147067693606,
        "longitude": -77.91260591604176,
        "created_at": "2025-03-12T14:10:18.534Z"
      }
    },
    {
      "id": 419151,
      "start_time": "2025-03-12T13:08:55.189Z",
      "end_time": "2025-03-12T13:30:57.259Z",
      "device_type": "Bee",
      "summary": "## Summary\nYou were talking with Ivette about your son. Ivette is very concerned about your son's behavior and doesn't think he understands the consequences of his actions. You tried to explain to her that you've spoken to him multiple times and that he's still learning. You also shared an anecdote about a TikTok video you saw about repeating yourself to men. \n\n## Atmosphere\nThe conversation seems to be a bit tense, with Ivette feeling frustrated and unheard. \n\n## Key Take Aways\n* **Behavioral Therapy:** Ivette wants to explore behavioral therapy for your son, potentially through his Medicaid. You agreed to look into it. \n* **Consequences:** Ivette feels strongly that your son needs to understand the serious consequences of his actions, especially given his dyslexia.\n* **Communication Breakdown:**  There seems to be a disconnect between you and Ivette in terms of how to address your son's behavior. \n* **Door Removal:** There was a side conversation about removing a door, which you said you would handle. \n",
      "short_summary": "Bruce discussed removing a door,  investigating behavioral therapy options for his son's dyslexia, and the challenges of communicating consequences to his son, acknowledging the limitations of repeatedly telling him the same thing.\n",
      "state": "COMPLETED",
      "created_at": "2025-03-12T13:08:55.189Z",
      "updated_at": "2025-03-12T13:30:57.259Z",
      "primary_location": {
        "address": "6027 Willow Glen Dr, Wilmington, NC, New Hanover County, 28412, United States",
        "latitude": 34.12136546583464,
        "longitude": -77.91256524649523,
        "created_at": "2025-03-12T13:16:56.217Z"
      }
    },
    {
      "id": 418473,
      "start_time": "2025-03-12T12:24:40.117Z",
      "end_time": "2025-03-12T13:00:07.846Z",
      "device_type": "Bee",
      "summary": "## San Francisco Adventures with the Boys\n\n### Summary\nYou were reminiscing about the good times you had with your sons, Russell and Benetton, exploring San Francisco. You talked about how you would plan weekly outings to art festivals, cultural events, and even simple walks around the city.  You fondly recalled a specific trip where you went to a small art and wine festival that wasn't as impressive as you'd hoped.  Afterward, you tried to find a pizza place but ended up at a small Mexican restaurant. You thought the food was just okay, but Russell loved it and still talks about going back.\n\n### Atmosphere\nThe atmosphere of the conversation is warm and nostalgic. You're clearly drawing on happy memories of spending quality time with your sons. You're also feeling a little wistful, as you acknowledge that your sons are older now and those carefree days are behind you. \n\n### Key Takeaways\n* You made a conscious effort to plan regular outings with your sons in San Francisco, creating lasting memories.\n* Russell has a particularly fond memory of a small Mexican restaurant you visited, even though you didn't think the food was anything special. \n* You enjoyed exploring San Francisco with your sons, finding joy in simple things like walking around the city and taking in the sights. \n",
      "short_summary": "I documented joyful memories of exploring San Francisco with my sons, Russell and Benetton, to help me remember positive experiences during a difficult time.\n",
      "state": "COMPLETED",
      "created_at": "2025-03-12T12:24:40.117Z",
      "updated_at": "2025-03-12T13:00:07.846Z",
      "primary_location": {
        "address": "6027 Willow Glen Dr, Wilmington, NC, New Hanover County, 28412, United States",
        "latitude": 34.12136546583464,
        "longitude": -77.91256524649523,
        "created_at": "2025-03-12T12:53:56.141Z"
      }
    }
  ],
  "currentPage": 1,
  "totalPages": 6,
  "totalCount": 60
}