{
  "facts": [
    {
      "id": 527246,
      "text": "Bruce finds Tasty Science enjoyable.",
      "tags": [
        "food",
        "technology"
      ],
      "created_at": "2025-03-12T20:22:10.300Z",
      "visibility": "private"
    },
    {
      "id": 527249,
      "text": "Bruce has been a part of the Boy Scouts.",
      "tags": [
        "hobbies"
      ],
      "created_at": "2025-03-12T20:22:10.300Z",
      "visibility": "private"
    },
    {
      "id": 527247,
      "text": "Bruce has done science experiments multiple times.",
      "tags": [
        "hobbies"
      ],
      "created_at": "2025-03-12T20:22:10.300Z",
      "visibility": "private"
    },
    {
      "id": 527250,
      "text": "Bruce has visited a place where they fly gas-powered model airplanes.",
      "tags": [
        "hobbies"
      ],
      "created_at": "2025-03-12T20:22:10.300Z",
      "visibility": "private"
    },
    {
      "id": 527244,
      "text": "Bruce has played the game Exploding Kittens.",
      "tags": [
        "entertainment",
        "hobbies"
      ],
      "created_at": "2025-03-12T20:22:10.300Z",
      "visibility": "private"
    },
    {
      "id": 527245,
      "text": "Bruce has played a game involving throwing burritos.",
      "tags": [
        "sports",
        "food",
        "entertainment"
      ],
      "created_at": "2025-03-12T20:22:10.300Z",
      "visibility": "private"
    },
    {
      "id": 527248,
      "text": "Bruce has built or launched a water rocket.",
      "tags": [
        "hobbies"
      ],
      "created_at": "2025-03-12T20:22:10.300Z",
      "visibility": "private"
    },
    {
      "id": 523100,
      "text": "Bruce has visited Rancho San Antonio Park.",
      "tags": [
        "hobbies"
      ],
      "created_at": "2025-03-12T17:34:54.473Z",
      "visibility": "private"
    },
    {
      "id": 523101,
      "text": "Bruce has visited Emma Prusch Farm Park.",
      "tags": [
        "hobbies"
      ],
      "created_at": "2025-03-12T17:34:54.473Z",
      "visibility": "private"
    },
    {
      "id": 523102,
      "text": "Bruce has visited San Jose History Park.",
      "tags": [
        "hobbies"
      ],
      "created_at": "2025-03-12T17:34:54.473Z",
      "visibility": "private"
    }
  ],
  "currentPage": 1,
  "totalPages": 23,
  "totalCount": 223
}