{
  "facts": [
    {
      "id": 516733,
      "text": "Bruce believes remembering happy times can make someone feel loved and have a good life.",
      "tags": [
        "health"
      ],
      "created_at": "2025-03-12T12:18:52.186Z",
      "visibility": "private"
    },
    {
      "id": 516732,
      "text": "Bruce plans to start meditating with Russell to help with personal well-being.",
      "tags": [
        "health",
        "hobbies"
      ],
      "created_at": "2025-03-12T12:18:52.186Z",
      "visibility": "private"
    },
    {
      "id": 509195,
      "text": "Bruce tracks his exercise and health-related activities.",
      "tags": [
        "sports",
        "health"
      ],
      "created_at": "2025-03-12T00:18:57.957Z",
      "visibility": "private"
    },
    {
      "id": 506739,
      "text": "Bruce has contacted a neuropsychiatry office in the past.",
      "tags": [
        "health"
      ],
      "created_at": "2025-03-11T22:05:08.607Z",
      "visibility": "private"
    },
    {
      "id": 506737,
      "text": "Bruce is familiar with Alexa and uses voice commands to set timers.",
      "tags": [
        "technology"
      ],
      "created_at": "2025-03-11T22:05:08.607Z",
      "visibility": "private"
    },
    {
      "id": 506738,
      "text": "Bruce has some knowledge about stock trading, including after-hours trading.",
      "tags": [
        "technology"
      ],
      "created_at": "2025-03-11T22:05:08.607Z",
      "visibility": "private"
    },
    {
      "id": 506740,
      "text": "Bruce has made calls to neuropsychiatry offices more than once without success.",
      "tags": [
        "health"
      ],
      "created_at": "2025-03-11T22:05:08.607Z",
      "visibility": "private"
    },
    {
      "id": 506744,
      "text": "Bruce is knowledgeable about the U.S. school credit system and class schedules.",
      "tags": [
        "education"
      ],
      "created_at": "2025-03-11T22:05:08.607Z",
      "visibility": "private"
    },
    {
      "id": 506745,
      "text": "Bruce has an interest in music, possibly in specific bands or albums.",
      "tags": [
        "entertainment",
        "hobbies"
      ],
      "created_at": "2025-03-11T22:05:08.607Z",
      "visibility": "private"
    },
    {
      "id": 504184,
      "text": "Bruce has an older son who has dyslexia and has faced multiple challenges, including social interaction issues and a history of drug use.",
      "tags": [
        "health"
      ],
      "created_at": "2025-03-11T20:18:49.042Z",
      "visibility": "private"
    }
  ],
  "currentPage": 1,
  "totalPages": 20,
  "totalCount": 198
}